1 1 1
1 2 2
2 1 2
1 99 119
1 999 179
1 9999 262
1 99999 351
6171 6171 262
6100 6333 262
4999 6333 262
97468 66602 351
573318 570493 372
142619 2246 375
298491 295500 327
103349 32173 351
741223 739300 393
31327 154260 375
66250 86991 351
144501 682 375
40744 53145 340
528947 532291 346
14413 59480 340
125850 100238 354
633075 631234 385
110295 11018 354
110992 76377 354
59427 28068 340
973814 967858 458
15721 152434 375
80155 68978 351
897526 897491 326
60911 140529 354
755200 754553 318
80309 19594 351
18860 28829 308
136105 39876 354
312497 293419 384
264030 269560 345
152494 10432 375
86318 106313 354
169940 206203 365
36422 68973 340
382854 386967 348
22766 34987 311
33063 84304 351
98739 110752 354
119541 78722 354
11521 139564 354
55383 84293 351
138001 38321 354
979760 975359 383
179118 190159 365
976555 980539 383
51736 38603 314
320513 336957 384
135237 25016 354
37711 140293 354
259135 252834 363
728803 727209 318
79691 114448 354
157266 116633 383
87196 123091 354
270211 244565 407
46008 42773 314
58107 10947 340
23183 125973 354
18185 128826 354
410400 411306 374
527999 535681 377
116036 17639 354
111545 28657 354
167745 171795 334
56619 130773 354
561860 564351 359
80533 120689 354
970781 964523 458
15034 1843 276
40404 84507 351
191795 175618 365
730117 723355 362
674419 682858 385
575024 576771 346
140173 1926 354
43984 126951 354
17809 70848 340
515750 531401 439
159347 18191 383
61691 10948 340
717775 718117 318
59477 58977 273
152761 42993 375
66538 153144 375
491587 491954 320
155989 44318 375
91584 34191 351
150255 74603 375
461367 472634 413
17316 142228 354
615223 610640 447
743873 741934 349
617060 617321 279
122981 126382 331
69005 127598 354
395390 404950 387
40195 114219 354
534605 528628 377
353645 334605 441
23857 5511 282
88884 67765 351
438470 440611 400
534698 512651 439
737836 745228 424
692771 701150 367
490960 497887 426
11736 48629 324
79089 125358 354
547598 549374 377
90087 27711 351
648402 645485 341
78593 102297 341
58532 81199 351
69233 21744 340
86470 57912 351
130940 821 354
130909 115382 349
400045 402261 387
190822 210193 373
111449 151949 375
24606 80262 351
39130 40073 306
123203 92235 354
356265 345319 441
453866 449660 387
221744 216243 386
681862 683404 336
15057 154074 375
784787 797142 468
609599 619430 447
48426 129707 354
610392 614256 354
223061 232735 443
9207 149447 375
62316 25497 340
112467 66344 354
137704 133823 344
584177 582736 434
590181 585479 359
826694 825605 344
36937 123569 354
183541 188318 347
46018 31601 324
737644 747179 424
24746 34597 311
882607 886272 370
164758 200346 365
507889 533905 470
183203 200886 360
294733 294816 265
746 146543 375
106408 68340 354
720911 721895 367
66445 104713 351
32074 28807 285
84008 146247 375
35734 37546 306
121028 146452 375
844551 845005 357
119327 47997 354
100487 125277 354
478146 467931 382
210980 193722 373
100858 3297 351
71775 76078 325
144043 119837 375
108355 56792 354
26161 95023 351
212033 195810 373
99539 57603 351
79909 122046 354
3095 132782 354
176308 192087 365
95732 57230 351
16523 159139 383
531753 516997 439
101114 117175 354
46589 67184 340
525964 528137 408
226968 231368 443
52928 45043 340
53763 85740 351
47929 51020 296
17882 52631 340
31640 89966 351
156218 44102 383
193945 190643 347
406423 408136 343
56700 140876 354
87998 112819 354
506686 527774 470
116841 127370 336
